%YAML 1.1
%TAG !u! tag:unity3d.com,2011:
--- !u!114 &11400000
MonoBehaviour:
  m_ObjectHideFlags: 0
  m_PrefabParentObject: {fileID: 0}
  m_PrefabInternal: {fileID: 0}
  m_GameObject: {fileID: 0}
  m_Enabled: 1
  m_EditorHideFlags: 0
  m_Script: {fileID: 337831424, guid: 6a10b2909283487f913b00d94cd3faf5, type: 3}
  m_Name: Level1PlayerLine
  m_EditorClassIdentifier: 
  m_NextId: 0
  m_Tracks:
  - {fileID: 114447270832469046}
  m_FixedDuration: 0
  m_EditorSettings:
    m_Framerate: 60
  m_DurationMode: 0
--- !u!74 &74255111205902282
AnimationClip:
  m_ObjectHideFlags: 0
  m_PrefabParentObject: {fileID: 0}
  m_PrefabInternal: {fileID: 0}
  m_Name: Recorded
  serializedVersion: 6
  m_Legacy: 0
  m_Compressed: 0
  m_UseHighQualityCurve: 1
  m_RotationCurves: []
  m_CompressedRotationCurves: []
  m_EulerCurves:
  - curve:
      serializedVersion: 2
      m_Curve:
      - serializedVersion: 2
        time: 0
        value: {x: 0, y: 0, z: 0}
        inSlope: {x: 0, y: 0, z: 0}
        outSlope: {x: 0, y: 0, z: 0}
        tangentMode: 0
      - serializedVersion: 2
        time: 10.033334
        value: {x: -21.99036, y: -0.03417969, z: 0.01063538}
        inSlope: {x: 0, y: -0.0084221, z: 0.0026206276}
        outSlope: {x: 0, y: -0.0084221, z: 0.0026206276}
        tangentMode: 0
      - serializedVersion: 2
        time: 16.233334
        value: {x: -20.64801, y: -13.80817, z: 4.267273}
        inSlope: {x: 0.46089277, y: -4.7292676, z: 1.3533301}
        outSlope: {x: 0.46089277, y: -4.7292676, z: 1.3533301}
        tangentMode: 0
      - serializedVersion: 2
        time: 21.683332
        value: {x: -15.17511, y: -60.33332, z: 15.77693}
        inSlope: {x: 1.1124064, y: -5.3331633, z: 0.6270588}
        outSlope: {x: 1.1124064, y: -5.3331633, z: 0.6270588}
        tangentMode: 0
      - serializedVersion: 2
        time: 27.883333
        value: {x: -7.688477, y: -75.93952, z: 17.60324}
        inSlope: {x: 2.0316553, y: -2.270569, z: 0.22910732}
        outSlope: {x: 2.0316553, y: -2.270569, z: 0.22910732}
        tangentMode: 0
      - serializedVersion: 2
        time: 32.466667
        value: {x: 6.73291, y: -84.81763, z: 18.24747}
        inSlope: {x: 2.5669065, y: -3.1771758, z: 0}
        outSlope: {x: 2.5669065, y: -3.1771758, z: 0}
        tangentMode: 0
      - serializedVersion: 2
        time: 37.7
        value: {x: 17.50999, y: -107.1288, z: 17.67209}
        inSlope: {x: 1.353013, y: -5.2807784, z: -0.2111488}
        outSlope: {x: 1.353013, y: -5.2807784, z: -0.2111488}
        tangentMode: 0
      - serializedVersion: 2
        time: 43.366665
        value: {x: 21.48075, y: -142.3781, z: 11.03484}
        inSlope: {x: 0.7811707, y: -6.5634522, z: -1.5686991}
        outSlope: {x: 0.7811707, y: -6.5634522, z: -1.5686991}
        tangentMode: 0
      - serializedVersion: 2
        time: 48.283333
        value: {x: 25.77738, y: -176.592, z: 1.070026}
        inSlope: {x: 0, y: -2.5474463, z: -0.7947564}
        outSlope: {x: 0, y: -2.5474463, z: -0.7947564}
        tangentMode: 0
      - serializedVersion: 2
        time: 58.116665
        value: {x: 18.66649, y: -185.9857, z: -1.860638}
        inSlope: {x: -1.3117752, y: -2.0393505, z: -0.62585413}
        outSlope: {x: -1.3117752, y: -2.0393505, z: -0.62585413}
        tangentMode: 0
      - serializedVersion: 2
        time: 62.6
        value: {x: 6.997133, y: -205.7887, z: -7.890118}
        inSlope: {x: 0, y: -3.0656712, z: -0.8778316}
        outSlope: {x: 0, y: -3.0656712, z: -0.8778316}
        tangentMode: 0
      - serializedVersion: 2
        time: 68.8
        value: {x: 12.68787, y: -218.7373, z: -11.23881}
        inSlope: {x: 0, y: -5.5692925, z: -0.9799482}
        outSlope: {x: 0, y: -5.5692925, z: -0.9799482}
        tangentMode: 0
      - serializedVersion: 2
        time: 71.9
        value: {x: -2.12225, y: -290.4929, z: -17.00364}
        inSlope: {x: 0, y: -1.2735783, z: 0}
        outSlope: {x: 0, y: -1.2735783, z: 0}
        tangentMode: 0
      - serializedVersion: 2
        time: 73.61667
        value: {x: -0.6130948, y: -292.0265, z: -16.87406}
        inSlope: {x: 0, y: 0, z: 0}
        outSlope: {x: 0, y: 0, z: 0}
        tangentMode: 0
      - serializedVersion: 2
        time: 77.35
        value: {x: -26.05474, y: -279.7194, z: -19.28928}
        inSlope: {x: 0, y: 0, z: 0}
        outSlope: {x: 0, y: 0, z: 0}
        tangentMode: 0
      m_PreInfinity: 2
      m_PostInfinity: 2
      m_RotationOrder: 4
    path: 
  m_PositionCurves:
  - curve:
      serializedVersion: 2
      m_Curve:
      - serializedVersion: 2
        time: 0
        value: {x: 1.7175293, y: 11.790283, z: 0.013824463}
        inSlope: {x: 0, y: 0, z: 0}
        outSlope: {x: 0, y: 0, z: 0}
        tangentMode: 0
      - serializedVersion: 2
        time: 10.033334
        value: {x: 1.7175293, y: 47.49019, z: 157.91458}
        inSlope: {x: 0, y: 4.4667, z: 15.724853}
        outSlope: {x: 0, y: 4.4667, z: 15.724853}
        tangentMode: 0
      - serializedVersion: 2
        time: 16.233334
        value: {x: -2.522644, y: 84.29971, z: 255.28061}
        inSlope: {x: -1.4558538, y: 5.6983056, z: 13.272083}
        outSlope: {x: -1.4558538, y: 5.6983056, z: 13.272083}
        tangentMode: 0
      - serializedVersion: 2
        time: 21.683332
        value: {x: -64.22263, y: 113.87544, z: 312.53433}
        inSlope: {x: -9.738063, y: 4.363042, z: 8.881365}
        outSlope: {x: -9.738063, y: 4.363042, z: 8.881365}
        tangentMode: 0
      - serializedVersion: 2
        time: 27.883333
        value: {x: -115.97107, y: 135.12915, z: 358.7485}
        inSlope: {x: -8.93439, y: 0, z: 0}
        outSlope: {x: -8.93439, y: 0, z: 0}
        tangentMode: 0
      - serializedVersion: 2
        time: 32.466667
        value: {x: -160.56516, y: 117.76109, z: 328.2332}
        inSlope: {x: -16.17371, y: -4.5335603, z: -2.4226127}
        outSlope: {x: -16.17371, y: -4.5335603, z: -2.4226127}
        tangentMode: 0
      - serializedVersion: 2
        time: 37.7
        value: {x: -274.743, y: 90.624695, z: 322.2877}
        inSlope: {x: -17.029514, y: -4.505573, z: -2.1818337}
        outSlope: {x: -17.029514, y: -4.505573, z: -2.1818337}
        tangentMode: 0
      - serializedVersion: 2
        time: 43.366665
        value: {x: -346.18683, y: 68.65036, z: 278.934}
        inSlope: {x: -8.209493, y: -8.305262, z: -16.385653}
        outSlope: {x: -8.209493, y: -8.305262, z: -16.385653}
        tangentMode: 0
      - serializedVersion: 2
        time: 48.283333
        value: {x: -367.90778, y: -3.441269, z: 147.4386}
        inSlope: {x: 0, y: -12.355201, z: -24.352377}
        outSlope: {x: 0, y: -12.355201, z: -24.352377}
        tangentMode: 0
      - serializedVersion: 2
        time: 58.116665
        value: {x: -366.1112, y: -113.58885, z: -80.263596}
        inSlope: {x: 0.50195205, y: -3.8699222, z: -24.091982}
        outSlope: {x: 0.50195205, y: -3.8699222, z: -24.091982}
        tangentMode: 0
      - serializedVersion: 2
        time: 62.6
        value: {x: -319.18695, y: -127.43995, z: -197.47824}
        inSlope: {x: 15.059133, y: -3.4858766, z: -29.90688}
        outSlope: {x: 15.059133, y: -3.4858766, z: -29.90688}
        tangentMode: 0
      - serializedVersion: 2
        time: 68.8
        value: {x: -205.2294, y: -150.82965, z: -399.76892}
        inSlope: {x: 21.171457, y: 0, z: -4.169943}
        outSlope: {x: 21.171457, y: 0, z: -4.169943}
        tangentMode: 0
      - serializedVersion: 2
        time: 71.9
        value: {x: -122.29233, y: -144.7919, z: -409.46405}
        inSlope: {x: 30.494366, y: 0, z: 0}
        outSlope: {x: 30.494366, y: 0, z: 0}
        tangentMode: 0
      - serializedVersion: 2
        time: 73.61667
        value: {x: -58.348244, y: -148.59216, z: -381.63086}
        inSlope: {x: 23.212059, y: 0, z: 7.71552}
        outSlope: {x: 23.212059, y: 0, z: 7.71552}
        tangentMode: 0
      - serializedVersion: 2
        time: 77.35
        value: {x: 4.213318, y: -124.76652, z: -367.4145}
        inSlope: {x: 0, y: 0, z: 0}
        outSlope: {x: 0, y: 0, z: 0}
        tangentMode: 0
      m_PreInfinity: 2
      m_PostInfinity: 2
      m_RotationOrder: 4
    path: 
  m_ScaleCurves: []
  m_FloatCurves: []
  m_PPtrCurves: []
  m_SampleRate: 60
  m_WrapMode: 0
  m_Bounds:
    m_Center: {x: 0, y: 0, z: 0}
    m_Extent: {x: 0, y: 0, z: 0}
  m_ClipBindingConstant:
    genericBindings:
    - serializedVersion: 2
      path: 0
      attribute: 1
      script: {fileID: 0}
      typeID: 4
      customType: 0
      isPPtrCurve: 0
    - serializedVersion: 2
      path: 0
      attribute: 4
      script: {fileID: 0}
      typeID: 4
      customType: 4
      isPPtrCurve: 0
    - serializedVersion: 2
      path: 0
      attribute: 0
      script: {fileID: 0}
      typeID: 95
      customType: 8
      isPPtrCurve: 0
    - serializedVersion: 2
      path: 0
      attribute: 1
      script: {fileID: 0}
      typeID: 95
      customType: 8
      isPPtrCurve: 0
    - serializedVersion: 2
      path: 0
      attribute: 2
      script: {fileID: 0}
      typeID: 95
      customType: 8
      isPPtrCurve: 0
    - serializedVersion: 2
      path: 0
      attribute: 3
      script: {fileID: 0}
      typeID: 95
      customType: 8
      isPPtrCurve: 0
    - serializedVersion: 2
      path: 0
      attribute: 4
      script: {fileID: 0}
      typeID: 95
      customType: 8
      isPPtrCurve: 0
    - serializedVersion: 2
      path: 0
      attribute: 5
      script: {fileID: 0}
      typeID: 95
      customType: 8
      isPPtrCurve: 0
    - serializedVersion: 2
      path: 0
      attribute: 6
      script: {fileID: 0}
      typeID: 95
      customType: 8
      isPPtrCurve: 0
    pptrCurveMapping: []
  m_AnimationClipSettings:
    serializedVersion: 2
    m_AdditiveReferencePoseClip: {fileID: 0}
    m_AdditiveReferencePoseTime: 0
    m_StartTime: 0
    m_StopTime: 77.35
    m_OrientationOffsetY: 0
    m_Level: 0
    m_CycleOffset: 0
    m_HasAdditiveReferencePose: 0
    m_LoopTime: 0
    m_LoopBlend: 0
    m_LoopBlendOrientation: 0
    m_LoopBlendPositionY: 0
    m_LoopBlendPositionXZ: 0
    m_KeepOriginalOrientation: 0
    m_KeepOriginalPositionY: 1
    m_KeepOriginalPositionXZ: 0
    m_HeightFromFeet: 0
    m_Mirror: 0
  m_EditorCurves:
  - curve:
      serializedVersion: 2
      m_Curve:
      - serializedVersion: 2
        time: 0
        value: 0
        inSlope: 0
        outSlope: 0
        tangentMode: 136
      - serializedVersion: 2
        time: 10.033334
        value: -21.99036
        inSlope: 0
        outSlope: 0
        tangentMode: 136
      - serializedVersion: 2
        time: 16.233334
        value: -20.64801
        inSlope: 0.46089277
        outSlope: 0.46089277
        tangentMode: 136
      - serializedVersion: 2
        time: 21.683332
        value: -15.17511
        inSlope: 1.1124064
        outSlope: 1.1124064
        tangentMode: 136
      - serializedVersion: 2
        time: 27.883333
        value: -7.688477
        inSlope: 2.0316553
        outSlope: 2.0316553
        tangentMode: 136
      - serializedVersion: 2
        time: 32.466667
        value: 6.73291
        inSlope: 2.5669065
        outSlope: 2.5669065
        tangentMode: 136
      - serializedVersion: 2
        time: 37.7
        value: 17.50999
        inSlope: 1.353013
        outSlope: 1.353013
        tangentMode: 136
      - serializedVersion: 2
        time: 43.366665
        value: 21.48075
        inSlope: 0.7811707
        outSlope: 0.7811707
        tangentMode: 136
      - serializedVersion: 2
        time: 48.283333
        value: 25.77738
        inSlope: 0
        outSlope: 0
        tangentMode: 136
      - serializedVersion: 2
        time: 58.116665
        value: 18.66649
        inSlope: -1.3117752
        outSlope: -1.3117752
        tangentMode: 136
      - serializedVersion: 2
        time: 62.6
        value: 6.997133
        inSlope: 0
        outSlope: 0
        tangentMode: 136
      - serializedVersion: 2
        time: 68.8
        value: 12.68787
        inSlope: 0
        outSlope: 0
        tangentMode: 136
      - serializedVersion: 2
        time: 71.9
        value: -2.12225
        inSlope: 0
        outSlope: 0
        tangentMode: 136
      - serializedVersion: 2
        time: 73.61667
        value: -0.6130948
        inSlope: 0
        outSlope: 0
        tangentMode: 136
      - serializedVersion: 2
        time: 77.35
        value: -26.05474
        inSlope: 0
        outSlope: 0
        tangentMode: 136
      m_PreInfinity: 2
      m_PostInfinity: 2
      m_RotationOrder: 4
    attribute: localEulerAnglesRaw.x
    path: 
    classID: 4
    script: {fileID: 0}
  - curve:
      serializedVersion: 2
      m_Curve:
      - serializedVersion: 2
        time: 0
        value: 0
        inSlope: 0
        outSlope: 0
        tangentMode: 136
      - serializedVersion: 2
        time: 10.033334
        value: -0.03417969
        inSlope: -0.0084221
        outSlope: -0.0084221
        tangentMode: 136
      - serializedVersion: 2
        time: 16.233334
        value: -13.80817
        inSlope: -4.7292676
        outSlope: -4.7292676
        tangentMode: 136
      - serializedVersion: 2
        time: 21.683332
        value: -60.33332
        inSlope: -5.3331633
        outSlope: -5.3331633
        tangentMode: 136
      - serializedVersion: 2
        time: 27.883333
        value: -75.93952
        inSlope: -2.270569
        outSlope: -2.270569
        tangentMode: 136
      - serializedVersion: 2
        time: 32.466667
        value: -84.81763
        inSlope: -3.1771758
        outSlope: -3.1771758
        tangentMode: 136
      - serializedVersion: 2
        time: 37.7
        value: -107.1288
        inSlope: -5.2807784
        outSlope: -5.2807784
        tangentMode: 136
      - serializedVersion: 2
        time: 43.366665
        value: -142.3781
        inSlope: -6.5634522
        outSlope: -6.5634522
        tangentMode: 136
      - serializedVersion: 2
        time: 48.283333
        value: -176.592
        inSlope: -2.5474463
        outSlope: -2.5474463
        tangentMode: 136
      - serializedVersion: 2
        time: 58.116665
        value: -185.9857
        inSlope: -2.0393505
        outSlope: -2.0393505
        tangentMode: 136
      - serializedVersion: 2
        time: 62.6
        value: -205.7887
        inSlope: -3.0656712
        outSlope: -3.0656712
        tangentMode: 136
      - serializedVersion: 2
        time: 68.8
        value: -218.7373
        inSlope: -5.5692925
        outSlope: -5.5692925
        tangentMode: 136
      - serializedVersion: 2
        time: 71.9
        value: -290.4929
        inSlope: -1.2735783
        outSlope: -1.2735783
        tangentMode: 136
      - serializedVersion: 2
        time: 73.61667
        value: -292.0265
        inSlope: 0
        outSlope: 0
        tangentMode: 136
      - serializedVersion: 2
        time: 77.35
        value: -279.7194
        inSlope: 0
        outSlope: 0
        tangentMode: 136
      m_PreInfinity: 2
      m_PostInfinity: 2
      m_RotationOrder: 4
    attribute: localEulerAnglesRaw.y
    path: 
    classID: 4
    script: {fileID: 0}
  - curve:
      serializedVersion: 2
      m_Curve:
      - serializedVersion: 2
        time: 0
        value: 0
        inSlope: 0
        outSlope: 0
        tangentMode: 136
      - serializedVersion: 2
        time: 10.033334
        value: 0.01063538
        inSlope: 0.0026206276
        outSlope: 0.0026206276
        tangentMode: 136
      - serializedVersion: 2
        time: 16.233334
        value: 4.267273
        inSlope: 1.3533301
        outSlope: 1.3533301
        tangentMode: 136
      - serializedVersion: 2
        time: 21.683332
        value: 15.77693
        inSlope: 0.6270588
        outSlope: 0.6270588
        tangentMode: 136
      - serializedVersion: 2
        time: 27.883333
        value: 17.60324
        inSlope: 0.22910732
        outSlope: 0.22910732
        tangentMode: 136
      - serializedVersion: 2
        time: 32.466667
        value: 18.24747
        inSlope: 0
        outSlope: 0
        tangentMode: 136
      - serializedVersion: 2
        time: 37.7
        value: 17.67209
        inSlope: -0.2111488
        outSlope: -0.2111488
        tangentMode: 136
      - serializedVersion: 2
        time: 43.366665
        value: 11.03484
        inSlope: -1.5686991
        outSlope: -1.5686991
        tangentMode: 136
      - serializedVersion: 2
        time: 48.283333
        value: 1.070026
        inSlope: -0.7947564
        outSlope: -0.7947564
        tangentMode: 136
      - serializedVersion: 2
        time: 58.116665
        value: -1.860638
        inSlope: -0.62585413
        outSlope: -0.62585413
        tangentMode: 136
      - serializedVersion: 2
        time: 62.6
        value: -7.890118
        inSlope: -0.8778316
        outSlope: -0.8778316
        tangentMode: 136
      - serializedVersion: 2
        time: 68.8
        value: -11.23881
        inSlope: -0.9799482
        outSlope: -0.9799482
        tangentMode: 136
      - serializedVersion: 2
        time: 71.9
        value: -17.00364
        inSlope: 0
        outSlope: 0
        tangentMode: 136
      - serializedVersion: 2
        time: 73.61667
        value: -16.87406
        inSlope: 0
        outSlope: 0
        tangentMode: 136
      - serializedVersion: 2
        time: 77.35
        value: -19.28928
        inSlope: 0
        outSlope: 0
        tangentMode: 136
      m_PreInfinity: 2
      m_PostInfinity: 2
      m_RotationOrder: 4
    attribute: localEulerAnglesRaw.z
    path: 
    classID: 4
    script: {fileID: 0}
  - curve:
      serializedVersion: 2
      m_Curve:
      - serializedVersion: 2
        time: 0
        value: 1.7175293
        inSlope: 0
        outSlope: 0
        tangentMode: 136
      - serializedVersion: 2
        time: 10.033334
        value: 1.7175293
        inSlope: 0
        outSlope: 0
        tangentMode: 136
      - serializedVersion: 2
        time: 16.233334
        value: -2.522644
        inSlope: -1.4558538
        outSlope: -1.4558538
        tangentMode: 136
      - serializedVersion: 2
        time: 21.683332
        value: -64.22263
        inSlope: -9.738063
        outSlope: -9.738063
        tangentMode: 136
      - serializedVersion: 2
        time: 27.883333
        value: -115.97107
        inSlope: -8.93439
        outSlope: -8.93439
        tangentMode: 136
      - serializedVersion: 2
        time: 32.466667
        value: -160.56516
        inSlope: -16.17371
        outSlope: -16.17371
        tangentMode: 136
      - serializedVersion: 2
        time: 37.7
        value: -274.743
        inSlope: -17.029514
        outSlope: -17.029514
        tangentMode: 136
      - serializedVersion: 2
        time: 43.366665
        value: -346.18683
        inSlope: -8.209493
        outSlope: -8.209493
        tangentMode: 136
      - serializedVersion: 2
        time: 48.283333
        value: -367.90778
        inSlope: 0
        outSlope: 0
        tangentMode: 136
      - serializedVersion: 2
        time: 58.116665
        value: -366.1112
        inSlope: 0.50195205
        outSlope: 0.50195205
        tangentMode: 136
      - serializedVersion: 2
        time: 62.6
        value: -319.18695
        inSlope: 15.059133
        outSlope: 15.059133
        tangentMode: 136
      - serializedVersion: 2
        time: 68.8
        value: -205.2294
        inSlope: 21.171457
        outSlope: 21.171457
        tangentMode: 136
      - serializedVersion: 2
        time: 71.9
        value: -122.29233
        inSlope: 30.494366
        outSlope: 30.494366
        tangentMode: 136
      - serializedVersion: 2
        time: 73.61667
        value: -58.348244
        inSlope: 23.212059
        outSlope: 23.212059
        tangentMode: 136
      - serializedVersion: 2
        time: 77.35
        value: 4.213318
        inSlope: 0
        outSlope: 0
        tangentMode: 136
      m_PreInfinity: 2
      m_PostInfinity: 2
      m_RotationOrder: 4
    attribute: m_LocalPosition.x
    path: 
    classID: 4
    script: {fileID: 0}
  - curve:
      serializedVersion: 2
      m_Curve:
      - serializedVersion: 2
        time: 0
        value: 11.790283
        inSlope: 0
        outSlope: 0
        tangentMode: 136
      - serializedVersion: 2
        time: 10.033334
        value: 47.49019
        inSlope: 4.4667
        outSlope: 4.4667
        tangentMode: 136
      - serializedVersion: 2
        time: 16.233334
        value: 84.29971
        inSlope: 5.6983056
        outSlope: 5.6983056
        tangentMode: 136
      - serializedVersion: 2
        time: 21.683332
        value: 113.87544
        inSlope: 4.363042
        outSlope: 4.363042
        tangentMode: 136
      - serializedVersion: 2
        time: 27.883333
        value: 135.12915
        inSlope: 0
        outSlope: 0
        tangentMode: 136
      - serializedVersion: 2
        time: 32.466667
        value: 117.76109
        inSlope: -4.5335603
        outSlope: -4.5335603
        tangentMode: 136
      - serializedVersion: 2
        time: 37.7
        value: 90.624695
        inSlope: -4.505573
        outSlope: -4.505573
        tangentMode: 136
      - serializedVersion: 2
        time: 43.366665
        value: 68.65036
        inSlope: -8.305262
        outSlope: -8.305262
        tangentMode: 136
      - serializedVersion: 2
        time: 48.283333
        value: -3.441269
        inSlope: -12.355201
        outSlope: -12.355201
        tangentMode: 136
      - serializedVersion: 2
        time: 58.116665
        value: -113.58885
        inSlope: -3.8699222
        outSlope: -3.8699222
        tangentMode: 136
      - serializedVersion: 2
        time: 62.6
        value: -127.43995
        inSlope: -3.4858766
        outSlope: -3.4858766
        tangentMode: 136
      - serializedVersion: 2
        time: 68.8
        value: -150.82965
        inSlope: 0
        outSlope: 0
        tangentMode: 136
      - serializedVersion: 2
        time: 71.9
        value: -144.7919
        inSlope: 0
        outSlope: 0
        tangentMode: 136
      - serializedVersion: 2
        time: 73.61667
        value: -148.59216
        inSlope: 0
        outSlope: 0
        tangentMode: 136
      - serializedVersion: 2
        time: 77.35
        value: -124.76652
        inSlope: 0
        outSlope: 0
        tangentMode: 136
      m_PreInfinity: 2
      m_PostInfinity: 2
      m_RotationOrder: 4
    attribute: m_LocalPosition.y
    path: 
    classID: 4
    script: {fileID: 0}
  - curve:
      serializedVersion: 2
      m_Curve:
      - serializedVersion: 2
        time: 0
        value: 0.013824463
        inSlope: 0
        outSlope: 0
        tangentMode: 136
      - serializedVersion: 2
        time: 10.033334
        value: 157.91458
        inSlope: 15.724853
        outSlope: 15.724853
        tangentMode: 136
      - serializedVersion: 2
        time: 16.233334
        value: 255.28061
        inSlope: 13.272083
        outSlope: 13.272083
        tangentMode: 136
      - serializedVersion: 2
        time: 21.683332
        value: 312.53433
        inSlope: 8.881365
        outSlope: 8.881365
        tangentMode: 136
      - serializedVersion: 2
        time: 27.883333
        value: 358.7485
        inSlope: 0
        outSlope: 0
        tangentMode: 136
      - serializedVersion: 2
        time: 32.466667
        value: 328.2332
        inSlope: -2.4226127
        outSlope: -2.4226127
        tangentMode: 136
      - serializedVersion: 2
        time: 37.7
        value: 322.2877
        inSlope: -2.1818337
        outSlope: -2.1818337
        tangentMode: 136
      - serializedVersion: 2
        time: 43.366665
        value: 278.934
        inSlope: -16.385653
        outSlope: -16.385653
        tangentMode: 136
      - serializedVersion: 2
        time: 48.283333
        value: 147.4386
        inSlope: -24.352377
        outSlope: -24.352377
        tangentMode: 136
      - serializedVersion: 2
        time: 58.116665
        value: -80.263596
        inSlope: -24.091982
        outSlope: -24.091982
        tangentMode: 136
      - serializedVersion: 2
        time: 62.6
        value: -197.47824
        inSlope: -29.90688
        outSlope: -29.90688
        tangentMode: 136
      - serializedVersion: 2
        time: 68.8
        value: -399.76892
        inSlope: -4.169943
        outSlope: -4.169943
        tangentMode: 136
      - serializedVersion: 2
        time: 71.9
        value: -409.46405
        inSlope: 0
        outSlope: 0
        tangentMode: 136
      - serializedVersion: 2
        time: 73.61667
        value: -381.63086
        inSlope: 7.71552
        outSlope: 7.71552
        tangentMode: 136
      - serializedVersion: 2
        time: 77.35
        value: -367.4145
        inSlope: 0
        outSlope: 0
        tangentMode: 136
      m_PreInfinity: 2
      m_PostInfinity: 2
      m_RotationOrder: 4
    attribute: m_LocalPosition.z
    path: 
    classID: 4
    script: {fileID: 0}
  m_EulerEditorCurves:
  - curve:
      serializedVersion: 2
      m_Curve: []
      m_PreInfinity: 2
      m_PostInfinity: 2
      m_RotationOrder: 4
    attribute: m_LocalEulerAngles.x
    path: 
    classID: 4
    script: {fileID: 0}
  - curve:
      serializedVersion: 2
      m_Curve: []
      m_PreInfinity: 2
      m_PostInfinity: 2
      m_RotationOrder: 4
    attribute: m_LocalEulerAngles.y
    path: 
    classID: 4
    script: {fileID: 0}
  - curve:
      serializedVersion: 2
      m_Curve: []
      m_PreInfinity: 2
      m_PostInfinity: 2
      m_RotationOrder: 4
    attribute: m_LocalEulerAngles.z
    path: 
    classID: 4
    script: {fileID: 0}
  m_HasGenericRootTransform: 1
  m_HasMotionFloatCurves: 0
  m_GenerateMotionCurves: 1
  m_Events: []
--- !u!114 &114447270832469046
MonoBehaviour:
  m_ObjectHideFlags: 1
  m_PrefabParentObject: {fileID: 0}
  m_PrefabInternal: {fileID: 0}
  m_GameObject: {fileID: 0}
  m_Enabled: 1
  m_EditorHideFlags: 0
  m_Script: {fileID: 1467732076, guid: 6a10b2909283487f913b00d94cd3faf5, type: 3}
  m_Name: Animation Track
  m_EditorClassIdentifier: 
  m_Locked: 0
  m_Muted: 0
  m_CustomPlayableFullTypename: 
  m_AnimClip: {fileID: 74255111205902282}
  m_Parent: {fileID: 11400000}
  m_Children: []
  m_Clips: []
  m_OpenClipPreExtrapolation: 1
  m_OpenClipPostExtrapolation: 1
  m_OpenClipOffsetPosition: {x: 164.66081, y: -20.2, z: 281.7}
  m_OpenClipOffsetRotation: {x: 0.157641, y: 0, z: 0, w: 0.9874965}
  m_OpenClipTimeOffset: 0
  m_MatchTargetFields: 63
  m_Position: {x: 0, y: 0, z: 0}
  m_Rotation: {x: 0, y: 0, z: 0, w: 1}
  m_ApplyOffsets: 0
  m_AvatarMask: {fileID: 0}
  m_ApplyAvatarMask: 1
