%YAML 1.1
%TAG !u! tag:unity3d.com,2011:
--- !u!1045 &1
EditorBuildSettings:
  m_ObjectHideFlags: 0
  serializedVersion: 2
  m_Scenes:
  - enabled: 1
    path: Assets/Scens/00 Splash.unity
    guid: ee1c40af68f0404428b84565a8401353
  - enabled: 1
    path: Assets/Scens/01 Start.unity
    guid: 8a9c1f45fcb634e4e89d4b03ebd60267
  - enabled: 1
    path: Assets/Scens/ChooseChar.unity
    guid: 88caadc18fff45b47bb81f11d960082e
  - enabled: 1
    path: Assets/Scens/Options.unity
    guid: c5e921d967f5f4841bfc3adc322ddd9d
  - enabled: 1
    path: Assets/Scens/Level1.unity
    guid: 3beb1942eee9e1342aa24b074a042fd1
  - enabled: 1
    path: Assets/Scens/Level2.unity
    guid: 5579806ae3126fc45af8874f31a3507a
  - enabled: 1
    path: Assets/Scens/Level3.unity
    guid: 4843738a9660878498b713bb34cd9f49
  - enabled: 1
    path: Assets/Scens/Win.unity
    guid: 677229734cb6a4743a51c10f52ec92e1
  - enabled: 1
    path: Assets/Scens/Win 1.unity
    guid: b30a04e392bcfef4ca1c9bf046eb485b
  - enabled: 1
    path: Assets/Scens/Lose.unity
    guid: 8a6e13c2a32f7694597947b9c14dff42
  - enabled: 1
    path: Assets/Scens/Lose 1.unity
    guid: caaaf578ee01c994e90b2a4048bbeb3f
  - enabled: 1
    path: Assets/Scens/Lose 2.unity
    guid: 1306155a6144d5c489295ba72a22e9a4
  - enabled: 1
    path: Assets/Scens/Win 2.unity
    guid: fc8857c83d19dae4ca1e00c02b98b4f5
  - enabled: 1
    path: Assets/Scens/Lose 3.unity
    guid: c908760ec7f6990448f5dff26f5ab20d
